{
	"pages": [ //pages数组中第一项表示应用启动页，参考：https://uniapp.dcloud.io/collocation/pages
		{
			"path": "pages/home/index",
			"style": {
				"navigationBarTitleText": "首页",
				"navigationStyle": "custom"
			}
		},
		{
			"path": "pages/announcement/index",
			"style": {
				"navigationBarTitleText": "通知公告",
				"navigationStyle": "custom"
			}
		},
		{
			"path": "pages/announcement/page/announcementDetails",
			"style": {
				"navigationBarTitleText": "公告详情",
				"navigationStyle": "custom"
			}
		},
		{
			"path": "pages/opinionFeedback/index",
			"style": {
				"navigationBarTitleText": "意见反馈",
				"navigationStyle": "custom"
			}
		},
		{
			"path": "pages/makeAnAppointment/index",
			"style": {
				"navigationBarTitleText": "座位预约",
				"navigationStyle": "custom"
			}
		},
		{
			"path": "pages/reservationManagement/index",
			"style": {
				"navigationBarTitleText": "预约管理",
				"navigationStyle": "custom"
			}
		},
		{
			"path": "pages/administratorEntry/index",
			"style": {
				"navigationBarTitleText": "管理员页面",
				"navigationStyle": "custom"
			}
		},
		{
			"path": "pages/administratorEntry/page/announ",
			"style": {
				"navigationBarTitleText": "发布公告",
				"navigationStyle": "custom"
			}
		},
		{
			"path": "pages/administratorEntry/page/feedbackList",
			"style": {
				"navigationBarTitleText": "反馈查看",
				"navigationStyle": "custom"
			}
		},
		{
			"path": "pages/administratorEntry/page/announcementDetails",
			"style": {
				"navigationBarTitleText": "反馈详情",
				"navigationStyle": "custom"
			}
		},
		{
			"path": "pages/administratorEntry/page/studentManagement",
			"style": {
				"navigationBarTitleText": "学生管理",
				"navigationStyle": "custom"
			}
		},
		{
			"path": "pages/administratorEntry/page/seatManagement",
			"style": {
				"navigationBarTitleText": "座位管理",
				"navigationStyle": "custom"
			}
		},
		{
			"path": "pages/login/index",
			"style": {
				"navigationBarTitleText": "登录",
				"navigationStyle": "custom"
			}
		}
	],
	"globalStyle": {
		"navigationBarTextStyle": "black",
		"navigationBarTitleText": "uni-app",
		"navigationBarBackgroundColor": "#F8F8F8",
		"backgroundColor": "#F8F8F8"
	},
	"uniIdRouter": {}
}